<?xml version="1.0" encoding="UTF-8"?>
<svg width="14px" height="14px" viewBox="0 0 14 14" version="1.1" xmlns="http://www.w3.org/2000/svg" xmlns:xlink="http://www.w3.org/1999/xlink">
    <title>upload-arrow</title>
    <g id="2.Desktop---Web-Super-Admin" stroke="none" stroke-width="1" fill="none" fill-rule="evenodd">
        <g id="2.3.Web-OrganizationAdmin_Dashboard" transform="translate(-552.000000, -185.000000)" fill="#3894F0" fill-rule="nonzero">
            <g id="Group-2" transform="translate(543.000000, 177.000000)">
                <g id="upload-arrow" transform="translate(9.000000, 8.000000)">
                    <polygon id="Path" points="0 13 14 13 14 14 0 14"></polygon>
                    <polygon id="Path" transform="translate(6.500000, 5.500000) scale(-1, 1) rotate(-180.000000) translate(-6.500000, -5.500000) " points="11 6.49902349 10.2946888 5.79199635 6.9996741 9.08594043 6.9996741 0 5.99933852 0 5.99933852 9.08594043 2.70336549 5.79100928 2 6.49803643 6.49950631 11"></polygon>
                </g>
            </g>
        </g>
    </g>
</svg>