<?xml version="1.0" encoding="UTF-8"?>
<svg width="134px" height="133px" viewBox="0 0 134 133" version="1.1" xmlns="http://www.w3.org/2000/svg" xmlns:xlink="http://www.w3.org/1999/xlink">
    <!-- Generator: Sketch 64 (93537) - https://sketch.com -->
    <title>checkmark-circle</title>
    <desc>Created with Sketch.</desc>
    <defs>
        <polygon id="path-1" points="65 125.997954 56.1491678 129.394586 48.542949 123.735984 39.1039292 124.618735 33.3064422 117.117835 23.9792836 115.421234 20.4205016 106.634345 11.896957 102.484221 10.8408184 93.0630259 3.75304006 86.7671748 5.27787399 77.4104005 0.151530003 69.4357569 4.14424644 60.8373524 1.3595343 51.7753592 7.52401174 44.5730289 7.2874608 35.0957725 15.1665082 29.8236803 17.4956623 20.6340457 26.5049267 17.6831985 31.2270432 9.4627387 40.6983487 9.05198734 47.4632099 2.41037632 56.694113 4.57018436 65 0 73.305887 4.57018436 82.5367901 2.41037632 89.3016513 9.05198734 98.7729568 9.4627387 103.495073 17.6831985 112.504338 20.6340457 114.833492 29.8236803 122.712539 35.0957725 122.475988 44.5730289 128.640466 51.7753592 125.855754 60.8373524 129.84847 69.4357569 124.722126 77.4104005 126.24696 86.7671748 119.159182 93.0630259 118.103043 102.484221 109.579498 106.634345 106.020716 115.421234 96.6935578 117.117835 90.8960708 124.618735 81.457051 123.735984 73.8508322 129.394586"></polygon>
        <filter x="-2.2%" y="-2.3%" width="104.4%" height="104.1%" filterUnits="objectBoundingBox" id="filter-2">
            <feOffset dx="0" dy="0" in="SourceAlpha" result="shadowOffsetOuter1"></feOffset>
            <feGaussianBlur stdDeviation="1" in="shadowOffsetOuter1" result="shadowBlurOuter1"></feGaussianBlur>
            <feColorMatrix values="0 0 0 0 0   0 0 0 0 0   0 0 0 0 0  0 0 0 0.5 0" type="matrix" in="shadowBlurOuter1"></feColorMatrix>
        </filter>
    </defs>
    <g id="1.1.Mobile-CustomerUser" stroke="none" stroke-width="1" fill="none" fill-rule="evenodd">
        <g id="1.4.2.Mobile-CustomerUser_FinishOnboarding-Copy" transform="translate(-114.000000, -253.000000)">
            <g id="checkmark-circle" transform="translate(116.000000, 255.000000)">
                <g id="Star">
                    <use fill="black" fill-opacity="1" filter="url(#filter-2)" xlink:href="#path-1"></use>
                    <use fill="#52CE88" fill-rule="evenodd" xlink:href="#path-1"></use>
                </g>
                <path d="M37.7827624,72.6502096 L51.1235985,84.9168483 C53.8313478,87.4065708 58.0286419,87.3226185 60.6339386,84.7266264 L92.6665473,52.8084203 C94.9184012,50.5646083 94.9184012,46.9266708 92.6665473,44.6828588 C90.414693,42.4390471 86.7637159,42.4390471 84.511862,44.6828588 L55.9704635,73.1223237 L46.0314563,64.4206214 C43.5952434,62.287692 39.9155845,62.4059887 37.6224218,64.6909616 C35.4591927,66.8464647 35.4591927,70.3412261 37.6224218,72.4967295 C37.6748328,72.548953 37.7282904,72.6001234 37.7827624,72.6502096 Z" id="Combined-Shape" fill="#FFFFFF" fill-rule="nonzero"></path>
            </g>
        </g>
    </g>
</svg>